<?xml version="1.0" encoding="UTF-8"?>
<svg id="ICP" xmlns="http://www.w3.org/2000/svg" viewBox="0 0 256 256">
  <defs>
    <style>
      .cls-1 {
        fill: #1649ae;
      }

      .cls-1, .cls-2 {
        stroke-width: 0px;
      }

      .cls-2 {
        fill: #fff;
      }
    </style>
  </defs>
  <g>
    <circle class="cls-2" cx="128" cy="128" r="94.47"/>
    <path class="cls-1" d="m128,38.27c49.48,0,89.73,40.25,89.73,89.73s-40.25,89.73-89.73,89.73-89.73-40.25-89.73-89.73,40.25-89.73,89.73-89.73m0-9.49c-54.8,0-99.22,44.42-99.22,99.22s44.42,99.22,99.22,99.22,99.22-44.42,99.22-99.22S182.8,28.78,128,28.78h0Z"/>
  </g>
  <polygon class="cls-1" points="71.57 184.44 118.96 71.56 132.68 123.32 184.43 137.04 71.57 184.44"/>
</svg>