<?xml version="1.0" encoding="UTF-8"?>
<svg xmlns="http://www.w3.org/2000/svg" width="256" height="256" viewBox="0 0 256 256">
  <defs>
    <style>
      .cls-1 {
        stroke: #231f20;
      }

      .cls-1, .cls-2 {
        fill: #231f20;
      }

      .cls-2, .cls-3 {
        stroke-width: 0px;
      }

      .cls-3 {
        fill: #fff;
      }
    </style>
  </defs>
  <g id="Circle">
    <g>
      <circle class="cls-3" cx="128" cy="128" r="119.44" transform="translate(-53.02 128) rotate(-45)"/>
      <path class="cls-2" d="m128,14.56c30.3,0,58.79,11.8,80.21,33.23,21.43,21.43,33.23,49.91,33.23,80.21s-11.8,58.79-33.23,80.21c-21.43,21.43-49.91,33.23-80.21,33.23s-58.79-11.8-80.21-33.23c-21.43-21.43-33.23-49.91-33.23-80.21s11.8-58.79,33.23-80.21c21.43-21.43,49.91-33.23,80.21-33.23m0-12C58.72,2.56,2.56,58.72,2.56,128s56.16,125.44,125.44,125.44,125.44-56.16,125.44-125.44S197.28,2.56,128,2.56h0Z"/>
    </g>
  </g>
  <g id="ICP">
    <g>
      <path class="cls-1" d="m68.97,74.56v111.56h-12.74v-111.56h12.74Z"/>
      <path class="cls-1" d="m139.14,154.43v3.65c0,14.52-3.18,29.49-26.44,29.49s-26.47-13.88-26.47-30.11v-56.87c0-18.01,9.16-27.49,26.61-27.49,21.85,0,25.69,13.17,25.69,27.57v4.21h-13v-4.82c0-9.17-1.56-17.26-12.95-17.26-10.75,0-13.34,7.22-13.34,17.58v57.67c0,12.11,3.22,19.88,13.8,19.88,11.15,0,13.02-8.17,13.02-19.19v-4.31h13.07Z"/>
      <path class="cls-1" d="m153.45,74.56h23.25c19.58,0,28.73,8.31,28.73,25.93v6.84c0,16.39-5.57,28.8-29.68,28.8h-9.56v50h-12.74v-111.56Zm12.74,52.52h8.51c15.72,0,17.93-8.11,17.93-19.88v-6.1c0-9.25-2.51-17.43-16.83-17.43h-9.61v43.41Z"/>
    </g>
  </g>
</svg>