<?xml version="1.0" encoding="UTF-8"?>
<svg xmlns="http://www.w3.org/2000/svg" width="256" height="256" viewBox="0 0 256 256">
  <defs>
    <style>
      .cls-1 {
        stroke: #231f20;
      }

      .cls-1, .cls-2 {
        fill: #231f20;
      }

      .cls-2, .cls-3 {
        stroke-width: 0px;
      }

      .cls-3 {
        fill: #fff;
      }
    </style>
  </defs>
  <g id="Circle">
    <g>
      <circle class="cls-3" cx="128" cy="128" r="119.44"/>
      <path class="cls-2" d="m128,14.56c30.3,0,58.79,11.8,80.21,33.23,21.43,21.43,33.23,49.91,33.23,80.21s-11.8,58.79-33.23,80.21c-21.43,21.43-49.91,33.23-80.21,33.23s-58.79-11.8-80.21-33.23c-21.43-21.43-33.23-49.91-33.23-80.21s11.8-58.79,33.23-80.21c21.43-21.43,49.91-33.23,80.21-33.23m0-12C58.72,2.56,2.56,58.72,2.56,128s56.16,125.44,125.44,125.44,125.44-56.16,125.44-125.44S197.28,2.56,128,2.56h0Z"/>
    </g>
  </g>
  <g id="ICP">
    <g>
      <path class="cls-1" d="m46,74.56h23.25c19.58,0,28.73,8.31,28.73,25.93v6.84c0,16.39-5.57,28.8-29.68,28.8h-9.56v50h-12.74v-111.56Zm12.74,52.52h8.51c15.72,0,17.93-8.11,17.93-19.88v-6.1c0-9.25-2.51-17.43-16.83-17.43h-9.61v43.41Z"/>
      <path class="cls-1" d="m110.75,74.56h12.74v101.98h33.68l-1.54,9.58h-44.88v-111.56Z"/>
      <path class="cls-1" d="m174.18,155.04v6.37c0,11.03,4.68,16.88,14.43,16.88s14.14-5.65,14.14-19.05-3.53-18.7-17.57-27.79c-14.3-9.3-21.48-14.84-21.48-31.26,0-14,5.02-27.26,25.29-27.15,18.81.11,24.42,10.31,24.42,24.96v4.99h-12.67v-4.71c0-9.61-2.31-15.9-12.02-15.9s-12.28,7.15-12.28,16.21c0,10.96,2.64,14.91,15.04,22.78,18.25,11.55,24.07,17.93,24.07,36.42,0,15.65-5.07,29.77-27.11,29.77-20.87,0-27.01-11.48-27.01-26.17v-6.36h12.74Z"/>
    </g>
  </g>
</svg>